{
	"partitions" : [
		{
			"name" : "Top",
			"pins" : [
				{
					"name" : "product[0]",
					"strict" : false
				},
				{
					"name" : "product[1]",
					"strict" : false
				},
				{
					"name" : "product[2]",
					"strict" : false
				},
				{
					"name" : "product[3]",
					"strict" : false
				},
				{
					"name" : "product[4]",
					"strict" : false
				},
				{
					"name" : "product[5]",
					"strict" : false
				},
				{
					"name" : "product[6]",
					"strict" : false
				},
				{
					"name" : "product[7]",
					"strict" : false
				},
				{
					"name" : "sign",
					"strict" : false
				},
				{
					"name" : "ready",
					"strict" : false
				},
				{
					"name" : "rst",
					"strict" : false
				},
				{
					"name" : "start",
					"strict" : false
				},
				{
					"name" : "md[1]",
					"strict" : false
				},
				{
					"name" : "md[2]",
					"strict" : false
				},
				{
					"name" : "md[3]",
					"strict" : false
				},
				{
					"name" : "md[0]",
					"strict" : false
				},
				{
					"name" : "mr[0]",
					"strict" : false
				},
				{
					"name" : "mr[1]",
					"strict" : false
				},
				{
					"name" : "mr[2]",
					"strict" : false
				},
				{
					"name" : "mr[3]",
					"strict" : false
				}
			]
		}
	]
}